Day 1:
     MAKING Api means frontend makes request (post, get,delete,patch)to backend  &
     backend gives reponse.


Day3 3:
    - Ways to send data from postman :body,params and query
    -(route?query)              ?separates route and query
    - Whatever you pass in a query, output comes  as a string.
    

    res.json() *2 
    -> For one request you must have one and only one response

     Middleware:
          are the function which has req,res,next
          1st way:
               route Middleware
               application Middleware


     next () is used to trigger next Middleware


Day 4:
     -next ("x")  next with argument triggers next error Middleware.,argument may be string ,number but generally error(object)
     -next()    without argument triggers next normal Middleware.



Day 5:
     CRUD (always related to database)
     -Create,                         =>post()               
     -Read,                           =>get()
     -Update,                         =>patch()
     -Delete,                         =>delete()




Day ---:
     i)inbuilt validation
     ii)custom validation


Day --:
 for token to be valid:
 i)token must be made from given secret key
 ii)token must not expire
 
 //if token is valid if gives infoObj else gives error



.env file:

add,
port,
url,
credentials,

//every thing inside .env is a  "string"
//we define variable
//use upperCase convention